https://medium.com/@alexander.bazhenov/vmware-horizon-view-7-%D1%87%D0%B0%D1%81%D1%82%D1%8C-1-%D1%83%D1%81%D1%82%D0%B0%D0%BD%D0%BE%D0%B2%D0%BA%D0%B0-%D0%B8-%D1%80%D0%B0%D0%B7%D0%B2%D0%B5%D1%80%D1%82%D1%8B%D0%B2%D0%B0%D0%BD%D0%B8%D0%B5-be3f93a8d181
https://medium.com/@alexander.bazhenov/vmware-horizon-view-7-%D1%87%D0%B0%D1%81%D1%82%D1%8C-2-%D1%83%D1%81%D1%82%D0%B0%D0%BD%D0%BE%D0%B2%D0%BA%D0%B0-%D0%B8-%D1%80%D0%B0%D0%B7%D0%B2%D0%B5%D1%80%D1%82%D1%8B%D0%B2%D0%B0%D0%BD%D0%B8%D0%B5-fee944a2d752
https://medium.com/@alexander.bazhenov
http://itsave.ru/vmware-horizon-client/



https://rsload.net/soft/desktop/31707-vmware-horizon.html



https://www.dmosk.ru/miniinstruktions.php?mini=kvm-centos7